{
  "oppAttackers": [
    {
      "damage": 0,
      "name": "Goblin 1",
      "power": 1,
      "toughness": 1
    },
    {
      "damage": 0,
      "name": "Goblin 2",
      "power": 2,
      "toughness": 2
    }
  ],
  "myLife": 22,
  "oppLife": 20,
  "oppDefenders": [
    {
      "damage": 0,
      "name": "Goblin 3",
      "power": 2,
      "toughness": 1
    }
  ],
  "myBlockers": [
    {
      "damage": 0,
      "name": "Goblin 4",
      "power": 1,
      "toughness": 2
    }
  ],
  "myAttackers": [
    {
      "damage": 0,
      "name": "Wild Wanderer",
      "power": 3,
      "toughness": 2
    },
    {
      "damage": 0,
      "name": "Goblin Token",
      "power": 1,
      "toughness": 1
    }
  ]
}