{
  "forward": {
    "Wax": [
      [
        0.3462223860828525,
        0.4556080655358047,
        0.6647953417572268,
        0.47027231983826245,
        0.6197827074708125,
        0.5737312266891388,
        0.6611957197542659,
        0.30052247867326365,
        0.18716421879813183,
        0.3879570311314773
      ],
      [
        0.8452514914617373,
        0.25946963761451214,
        0.9286285497567552,
        0.06622127756412033,
        0.1368227208301246,
        0.6685786218826077,
        0.0034572793992796447,
        0.3115500320167849,
        0.15848223166737851,
        0.39299554140651083
      ],
      [
        0.5830880859145122,
        0.15672854218909427,
        0.772978078576245,
        0.9561498767673315,
        0.9757572024203004,
        0.52310898987086,
        0.5645047296730399,
        0.7762686572007623,
        0.19979637761047953,
        0.7559761754369342
      ],
      [
        0.17449117752625531,
        0.7847452964523639,
        0.6135696358486179,
        0.37100589114635496,
        0.41100546205611044,
        0.10861510743663039,
        0.4675764930066787,
        0.012482420524137616,
        0.6804991468510944,
        0.9425729121458865
      ],
      [
        0.45813415271314106,
        0.6679945926906139,
        0.6298626944423513,
        0.024588635662088576,
        0.9488197238431592,
        0.021156052085720134,
        0.9901407439388201,
        0.3373252359832932,
        0.06652901736986305,
        0.06928489970440654
      ]
    ],
    "Waa": [
      [
        0.6660864100132333,
        0.8733005397945057,
        0.03699114771494194,
        0.2046551341266577,
        0.9430294573908898
      ],
      [
        0.3628349951540156,
        0.35035137958105733,
        0.7608237007377299,
        0.14393898621949097,
        0.1877667912226506
      ],
      [
        0.0892533809700331,
        0.11568842700152049,
        0.8806014937342328,
        0.7521730503874072,
        0.7216414864370955
      ],
      [
        0.18600731385819025,
        0.7674589631276412,
        0.9953666803930378,
        0.641947664528543,
        0.1000234707816473
      ],
      [
        0.8529162518333261,
        0.29100967978508097,
        0.609690257067287,
        0.1747316895902853,
        0.937006880304475
      ]
    ],
    "Wya": [
      [
        0.5857172166699954,
        0.0865929929704723,
        0.4174062826731696,
        0.8824585857889615,
        0.7733347965220796
      ]
    ],
    "ba": 0.555324244403458,
    "by": -0.6924879192366806
  },
  "backward": {
    "Wax": [
      [
        0.8888998022292093,
        0.5792120428176522,
        0.7420314261728107,
        0.851869276198247,
        0.4804980134144373,
        0.9122065207509702,
        0.1285514617559098,
        0.4533337478592695,
        0.7529509474258838,
        0.010362655448947544
      ],
      [
        0.34666098613110363,
        0.7615823165573546,
        0.056964956437023595,
        0.25421433967803975,
        0.8871808258971948,
        0.5155702728246478,
        0.07614390965492068,
        0.6507606706960006,
        0.2616928381542025,
        0.4065194961844425
      ],
      [
        0.7360650430155047,
        0.9006675538098984,
        0.022055933689095197,
        0.5360066617428471,
        0.6926477472716213,
        0.30685895762452575,
        0.16944869025250497,
        0.3408445462479792,
        0.6205366104033747,
        0.40909603795597516
      ],
      [
        0.0011675706153193577,
        0.8151452517529759,
        0.09772682581949255,
        0.28339261192564524,
        0.05326490048815935,
        0.49738302560967074,
        0.7238523605703443,
        0.6903995893361891,
        0.9411711012537176,
        0.5026958198546079
      ],
      [
        0.919573893763983,
        0.5063573313799115,
        0.8890176363981177,
        0.18323188751806974,
        0.5246715437229682,
        0.3536588118831636,
        0.2489443207089056,
        0.1479843280278712,
        0.43717588451635603,
        0.08325660600116969
      ]
    ],
    "Waa": [
      [
        0.9176358401670791,
        0.6721719530187565,
        0.40118580284574235,
        0.2856171188340768,
        0.921138795129823
      ],
      [
        0.8867718263926142,
        0.8279196042233952,
        0.7108350516335489,
        0.7479711906148044,
        0.6644336746224485
      ],
      [
        0.38828620445799833,
        0.07688121457442532,
        0.8446157589407555,
        0.3128112307586298,
        0.878592366916427
      ],
      [
        0.8308359516958891,
        0.7299892652820839,
        0.05179376959768167,
        0.21294696532097857,
        0.6542107010558108
      ],
      [
        0.31557868893561913,
        0.41906907668982496,
        0.5319241369023011,
        0.6533035368508984,
        0.8562341517706605
      ]
    ],
    "Wya": [
      [
        0.7230328121522669,
        0.17044889987868506,
        0.9315338925502917,
        0.39782675789903543,
        0.644627644162301
      ]
    ],
    "ba": -0.3521663032875527,
    "by": 0.2583129918928099
  }
}